{
  "images" : [
    {
      "idiom" : "universal",
      "filename" : "don_t_have_a_prescription_illustration.png",
      "scale" : "1x"
    },
    {
      "idiom" : "universal",
      "filename" : "don_t_have_a_prescription_illustration-1.png",
      "scale" : "2x"
    },
    {
      "idiom" : "universal",
      "filename" : "don_t_have_a_prescription_illustration-2.png",
      "scale" : "3x"
    }
  ],
  "info" : {
    "version" : 1,
    "author" : "xcode"
  }
}